<!-- Created with Inkscape (http://www.inkscape.org/) -->
<svg xmlns:rdf="http://www.w3.org/1999/02/22-rdf-syntax-ns#" xmlns="http://www.w3.org/2000/svg" height="10" width="9.9996" version="1.1" xmlns:cc="http://creativecommons.org/ns#" xmlns:dc="http://purl.org/dc/elements/1.1/" viewBox="0 0 9.9996 10">
 <metadata>
  <rdf:RDF>
   <cc:Work rdf:about="">
    <dc:format>image/svg+xml</dc:format>
    <dc:type rdf:resource="http://purl.org/dc/dcmitype/StillImage"/>
    <dc:title>Gnome Symbolic Icon Theme</dc:title>
   </cc:Work>
  </rdf:RDF>
 </metadata>
 <title>Derived from Gnome Symbolic Icon Theme (CC-BY-SA)</title>
 <g transform="translate(-43.000397,-748.99976)" fill="#ccc">
  <rect height="2.0002" width="9.9996" y="749" x="43"/>
  <rect height="2.0002" width="9.9996" y="753" x="43"/>
  <rect height="2.0002" width="9.9996" y="757" x="43"/>
 </g>
</svg>
