<?xml version="1.0" encoding="UTF-8" standalone="no"?>
<svg xmlns:rdf="http://www.w3.org/1999/02/22-rdf-syntax-ns#" xmlns="http://www.w3.org/2000/svg" height="8.4667" width="20.772" version="1.1" xmlns:cc="http://creativecommons.org/ns#" xmlns:dc="http://purl.org/dc/elements/1.1/">
<title>Gnome Symbolic Icon Theme</title>
<g transform="matrix(0 1 -1 0 761 -103.53)">
<path fill="#a07395" d="m104.56 750.76 5.7188 9.7625c0.2 0.33 0.46 0.48 0.72 0.48h1v-1.7071c0-0.43637-0.0854-0.89261-0.28125-1.227l-4.2812-7.3086 4.2812-7.3086c0.19587-0.33437 0.28125-0.79062 0.28125-1.227v-1.7071h-1c-0.25562 0-0.52288 0.14579-0.71875 0.48013z"/>
<g fill="#2f2f2f" transform="matrix(0 -.32366 .32366 0 -6.5123 770.98)">
<path style="color:#bebebe" fill="#4f4f4f" d="m86 340c-0.54996 0-1 0.45004-1 1v1h-3c-0.55201 0-1 0.45004-1 1v8c0 0.54996 0.44799 1 1 1h12c0.55201 0 1-0.45004 1-1v-8c0-0.54996-0.44799-1-1-1h-3v-1c0-0.54996-0.45004-1-1-1h-4zm2 3c2.2091 0 4 1.7909 4 4s-1.7909 4-4 4-4-1.7909-4-4 1.7909-4 4-4zm0 2c-1.1046 0-2 0.89543-2 2s0.89543 2 2 2 2-0.89543 2-2-0.89543-2-2-2z"/>
</g>
</g>
</svg>
