<?xml version="1.0" encoding="UTF-8"?>
<svg width="40" height="40" version="1.1" viewBox="0 0 10.583333 10.583334" xmlns="http://www.w3.org/2000/svg">
 <rect x=".263" y=".263" width="10.056" height="10.056" ry="0" fill="#fff"/><rect x=".263" y=".263" width="10.056" height="10.056" ry="0" fill="#ff0072" fill-opacity=".502" stroke="#333" stroke-dasharray="2.10793607,2.10793607000000005" stroke-width=".527"/>
 <g transform="matrix(1 0 0 -1 -3.662e-7 10.584)" fill="#fff">
  <rect transform="rotate(-45)" x="-4.417" y="6.587" width="8.834" height="1.794" ry="0"/>
  <rect transform="matrix(-.70711 -.70711 -.70711 .70711 0 0)" x="-11.901" y="-.897" width="8.834" height="1.794" ry="0"/>
 </g>
</svg>
