<svg width="30" height="30" version="1.1" viewBox="0 0 7.9375 7.9375" xmlns="http://www.w3.org/2000/svg">
<rect y="-2.6645e-15" width="7.9375" height="7.9375" fill="#784421"/>
<g transform="matrix(1.5267 0 0 1.5267 -.070543 -.070543)" fill="#f3e0d2" aria-label="∞">
<path d="m3.6901 1.2171q0.60678 0 0.87489 0.39511 0.27517 0.39511 0.27517 1.0372 0 0.635-0.27517 1.0301-0.27517 0.39511-0.89606 0.39511-0.35983 0-0.61383-0.16933-0.24694-0.17639-0.43744-0.51506-0.17639 0.32456-0.42333 0.508-0.23989 0.17639-0.59972 0.17639-0.60678 0-0.87489-0.39511-0.26811-0.39511-0.26811-1.0372 0-0.64206 0.27517-1.0301 0.27517-0.39511 0.89606-0.39511 0.35278 0 0.60678 0.17639 0.254 0.16933 0.4445 0.51506 0.17639-0.32456 0.41628-0.508 0.23989-0.18344 0.59972-0.18344zm-1.9544 0.72672q-0.40217 0-0.40217 0.6985 0 0.33867 0.098778 0.52211 0.098778 0.17639 0.28928 0.17639 0.21167 0 0.33161-0.19756 0.11994-0.20461 0.22578-0.60678-0.11994-0.28928-0.23989-0.43744-0.11994-0.15522-0.30339-0.15522zm1.8274 0q-0.20461 0-0.32456 0.20461-0.11289 0.19756-0.23283 0.59972 0.11289 0.28222 0.23283 0.43744 0.127 0.15522 0.3175 0.15522 0.40217 0 0.40217-0.6985 0-0.33867-0.098778-0.51506-0.098778-0.18344-0.29633-0.18344z" fill="#f3e0d2" stroke-width=".26458"/>
</g>
</svg>
