<?xml version="1.0" encoding="UTF-8"?>
<svg width="30" height="30" version="1.1" viewBox="0 0 7.9374998 7.9375002" xmlns="http://www.w3.org/2000/svg">
 <rect x="2.6458" y="2.6508" width="5.2917" height="5.2917" fill="#40accc" fill-opacity=".50196"/>
 <rect y="-8.8818e-16" width="5.2917" height="5.2917" fill="#40accc"/>
 <g fill="#e8f5f9" aria-label="5">
  <path d="m3.7862 1.2873h-1.4255v0.82618q0.27345-0.128 0.58182-0.128 0.32582 0 0.58182 0.15127 0.256 0.15127 0.40145 0.44218 0.14545 0.29091 0.14545 0.68655 0 0.41309-0.192 0.73309-0.18618 0.31418-0.54109 0.48873-0.34909 0.17455-0.80873 0.17455-0.79709 0-1.3091-0.59345l0.51782-0.47709q0.31418 0.37818 0.75636 0.37818 0.30255 0 0.46545-0.18036 0.16873-0.18036 0.16873-0.51782 0-0.65745-0.55273-0.65745-0.11636 0-0.22691 0.034909-0.11055 0.029091-0.24436 0.10473h-0.62255v-2.1236h2.4087z" fill="#e8f5f9" stroke-width=".26458"/>
 </g>
</svg>
